^D:\FACULTATE\ANIV_SEM1\SISTEME DE RECUNOASTERE A FORMELOR\PROIECT\OPENCVAPPLICATION-VS2013\OPENCVAPPLICATION-VS2013_2413_BASIC\STDAFX.CPP
/c /IOPENCV/INCLUDE /ZI /nologo /W3 /WX- /sdl /Od /Oy- /D WIN32 /D _DEBUG /D _CONSOLE /D _CRT_SECURE_NO_WARNINGS /D _MBCS /Gm /EHsc /RTC1 /MDd /GS /fp:precise /Zc:wchar_t /Zc:forScope /Zc:inline /Yc"stdafx.h" /Fp"DEBUG\OPENCVAPPLICATION.PCH" /Fo"DEBUG\\" /Fd"DEBUG\VC140.PDB" /Gd /TP /analyze- D:\FACULTATE\ANIV_SEM1\SISTEME DE RECUNOASTERE A FORMELOR\PROIECT\OPENCVAPPLICATION-VS2013\OPENCVAPPLICATION-VS2013_2413_BASIC\STDAFX.CPP
^D:\FACULTATE\ANIV_SEM1\SISTEME DE RECUNOASTERE A FORMELOR\PROIECT\OPENCVAPPLICATION-VS2013\OPENCVAPPLICATION-VS2013_2413_BASIC\COMMON.CPP
/c /IOPENCV/INCLUDE /ZI /nologo /W3 /WX- /sdl /Od /Oy- /D WIN32 /D _DEBUG /D _CONSOLE /D _CRT_SECURE_NO_WARNINGS /D _MBCS /Gm /EHsc /RTC1 /MDd /GS /fp:precise /Zc:wchar_t /Zc:forScope /Zc:inline /Yu"stdafx.h" /Fp"DEBUG\OPENCVAPPLICATION.PCH" /Fo"DEBUG\\" /Fd"DEBUG\VC140.PDB" /Gd /TP /analyze- D:\FACULTATE\ANIV_SEM1\SISTEME DE RECUNOASTERE A FORMELOR\PROIECT\OPENCVAPPLICATION-VS2013\OPENCVAPPLICATION-VS2013_2413_BASIC\COMMON.CPP
^D:\FACULTATE\ANIV_SEM1\SISTEME DE RECUNOASTERE A FORMELOR\PROIECT\OPENCVAPPLICATION-VS2013\OPENCVAPPLICATION-VS2013_2413_BASIC\IMAGE.CPP
/c /IOPENCV/INCLUDE /ZI /nologo /W3 /WX- /sdl /Od /Oy- /D WIN32 /D _DEBUG /D _CONSOLE /D _CRT_SECURE_NO_WARNINGS /D _MBCS /Gm /EHsc /RTC1 /MDd /GS /fp:precise /Zc:wchar_t /Zc:forScope /Zc:inline /Yu"stdafx.h" /Fp"DEBUG\OPENCVAPPLICATION.PCH" /Fo"DEBUG\\" /Fd"DEBUG\VC140.PDB" /Gd /TP /analyze- D:\FACULTATE\ANIV_SEM1\SISTEME DE RECUNOASTERE A FORMELOR\PROIECT\OPENCVAPPLICATION-VS2013\OPENCVAPPLICATION-VS2013_2413_BASIC\IMAGE.CPP
^D:\FACULTATE\ANIV_SEM1\SISTEME DE RECUNOASTERE A FORMELOR\PROIECT\OPENCVAPPLICATION-VS2013\OPENCVAPPLICATION-VS2013_2413_BASIC\IMAGESCLUSTER.CPP
/c /IOPENCV/INCLUDE /ZI /nologo /W3 /WX- /sdl /Od /Oy- /D WIN32 /D _DEBUG /D _CONSOLE /D _CRT_SECURE_NO_WARNINGS /D _MBCS /Gm /EHsc /RTC1 /MDd /GS /fp:precise /Zc:wchar_t /Zc:forScope /Zc:inline /Yu"stdafx.h" /Fp"DEBUG\OPENCVAPPLICATION.PCH" /Fo"DEBUG\\" /Fd"DEBUG\VC140.PDB" /Gd /TP /analyze- D:\FACULTATE\ANIV_SEM1\SISTEME DE RECUNOASTERE A FORMELOR\PROIECT\OPENCVAPPLICATION-VS2013\OPENCVAPPLICATION-VS2013_2413_BASIC\IMAGESCLUSTER.CPP
^D:\FACULTATE\ANIV_SEM1\SISTEME DE RECUNOASTERE A FORMELOR\PROIECT\OPENCVAPPLICATION-VS2013\OPENCVAPPLICATION-VS2013_2413_BASIC\OPENCVAPPLICATION.CPP
/c /IOPENCV/INCLUDE /ZI /nologo /W3 /WX- /sdl /Od /Oy- /D WIN32 /D _DEBUG /D _CONSOLE /D _CRT_SECURE_NO_WARNINGS /D _MBCS /Gm /EHsc /RTC1 /MDd /GS /fp:precise /Zc:wchar_t /Zc:forScope /Zc:inline /Yu"stdafx.h" /Fp"DEBUG\OPENCVAPPLICATION.PCH" /Fo"DEBUG\\" /Fd"DEBUG\VC140.PDB" /Gd /TP /analyze- D:\FACULTATE\ANIV_SEM1\SISTEME DE RECUNOASTERE A FORMELOR\PROIECT\OPENCVAPPLICATION-VS2013\OPENCVAPPLICATION-VS2013_2413_BASIC\OPENCVAPPLICATION.CPP
^D:\FACULTATE\ANIV_SEM1\SISTEME DE RECUNOASTERE A FORMELOR\PROIECT\OPENCVAPPLICATION-VS2013\OPENCVAPPLICATION-VS2013_2413_BASIC\POINTSCLUSTER.CPP
/c /IOPENCV/INCLUDE /ZI /nologo /W3 /WX- /sdl /Od /Oy- /D WIN32 /D _DEBUG /D _CONSOLE /D _CRT_SECURE_NO_WARNINGS /D _MBCS /Gm /EHsc /RTC1 /MDd /GS /fp:precise /Zc:wchar_t /Zc:forScope /Zc:inline /Yu"stdafx.h" /Fp"DEBUG\OPENCVAPPLICATION.PCH" /Fo"DEBUG\\" /Fd"DEBUG\VC140.PDB" /Gd /TP /analyze- D:\FACULTATE\ANIV_SEM1\SISTEME DE RECUNOASTERE A FORMELOR\PROIECT\OPENCVAPPLICATION-VS2013\OPENCVAPPLICATION-VS2013_2413_BASIC\POINTSCLUSTER.CPP
